cores/measure/test/test.vcd
$date
	Tue Jan 28 16:18:30 2014
$end
$version
	Icarus Verilog
$end
$timescale
	1ps
$end
$scope module tb_system $end
$var wire 8 ! led [7:0] $end
$var wire 8 " xgmii_0_txc [7:0] $end
$var wire 64 # xgmii_0_txd [63:0] $end
$var wire 8 $ xgmii_1_txc [7:0] $end
$var wire 64 % xgmii_1_txd [63:0] $end
$var reg 1 & button_c $end
$var reg 1 ' button_e $end
$var reg 1 ( button_n $end
$var reg 1 ) button_s $end
$var reg 1 * button_w $end
$var reg 4 + dipsw [3:0] $end
$var reg 1 , sys_clk $end
$var reg 1 - sys_rst $end
$var reg 8 . xgmii_0_rxc [7:0] $end
$var reg 64 / xgmii_0_rxd [63:0] $end
$var reg 8 0 xgmii_1_rxc [7:0] $end
$var reg 64 1 xgmii_1_rxd [63:0] $end
$var reg 8 2 xphy_0_status [7:0] $end
$var reg 8 3 xphy_1_status [7:0] $end
$scope module measure_inst $end
$var wire 1 4 button_c $end
$var wire 1 5 button_e $end
$var wire 1 6 button_n $end
$var wire 1 7 button_s $end
$var wire 1 8 button_w $end
$var wire 32 9 crc_out [31:0] $end
$var wire 4 : dipsw [3:0] $end
$var wire 8 ; led [7:0] $end
$var wire 72 < rx0_phyq_din [71:0] $end
$var wire 72 = rx0_phyq_dout [71:0] $end
$var wire 1 > rx0_phyq_empty $end
$var wire 1 ? rx0_phyq_full $end
$var wire 1 @ rx0_phyq_rd_en $end
$var wire 1 A rx0_phyq_wr_en $end
$var wire 72 B rx1_phyq_din [71:0] $end
$var wire 72 C rx1_phyq_dout [71:0] $end
$var wire 1 D rx1_phyq_empty $end
$var wire 1 E rx1_phyq_full $end
$var wire 1 F rx1_phyq_rd_en $end
$var wire 1 G rx1_phyq_wr_en $end
$var wire 1 H sys_clk $end
$var wire 1 I sys_rst $end
$var wire 1 H xgemac_clk_156 $end
$var wire 8 J xgmii_0_rxc [7:0] $end
$var wire 64 K xgmii_0_rxd [63:0] $end
$var wire 8 L xgmii_0_txc [7:0] $end
$var wire 64 M xgmii_0_txd [63:0] $end
$var wire 8 N xgmii_1_rxc [7:0] $end
$var wire 64 O xgmii_1_rxd [63:0] $end
$var wire 8 P xgmii_1_txc [7:0] $end
$var wire 64 Q xgmii_1_txd [63:0] $end
$var wire 8 R xphy_0_status [7:0] $end
$var wire 8 S xphy_1_status [7:0] $end
$var reg 1 T crc_en $end
$var reg 8 U led_out [7:0] $end
$var reg 12 V rx_counter [11:0] $end
$var reg 16 W tx_counter [15:0] $end
$var reg 8 X txc [7:0] $end
$var reg 64 Y txd [63:0] $end
$scope module rx0fifo $end
$var wire 1 H clk $end
$var wire 10 Z data_count [9:0] $end
$var wire 72 [ data_ram [71:0] $end
$var wire 72 \ din [71:0] $end
$var wire 1 > empty $end
$var wire 1 ? full $end
$var wire 1 @ rd_cs $end
$var wire 1 @ rd_en $end
$var wire 1 I rst $end
$var wire 1 A wr_cs $end
$var wire 1 A wr_en $end
$var reg 72 ] dout [71:0] $end
$var reg 10 ^ rd_pointer [9:0] $end
$var reg 11 _ status_cnt [10:0] $end
$var reg 10 ` wr_pointer [9:0] $end
$scope module DP_RAM $end
$var wire 10 a address_0 [9:0] $end
$var wire 10 b address_1 [9:0] $end
$var wire 1 A cs_0 $end
$var wire 1 @ cs_1 $end
$var wire 72 c data_0 [71:0] $end
$var wire 72 d data_1 [71:0] $end
$var wire 1 e oe_0 $end
$var wire 1 @ oe_1 $end
$var wire 1 A we_0 $end
$var wire 1 f we_1 $end
$var reg 72 g data_0_out [71:0] $end
$var reg 72 h data_1_out [71:0] $end
$scope begin MEM_WRITE $end
$upscope $end
$scope begin MEM_READ_0 $end
$upscope $end
$scope begin MEM_READ_1 $end
$upscope $end
$upscope $end
$scope begin WRITE_POINTER $end
$upscope $end
$scope begin READ_POINTER $end
$upscope $end
$scope begin READ_DATA $end
$upscope $end
$scope begin STATUS_COUNTER $end
$upscope $end
$upscope $end
$scope module rx1fifo $end
$var wire 1 H clk $end
$var wire 10 i data_count [9:0] $end
$var wire 72 j data_ram [71:0] $end
$var wire 72 k din [71:0] $end
$var wire 1 D empty $end
$var wire 1 E full $end
$var wire 1 F rd_cs $end
$var wire 1 l rd_en $end
$var wire 1 I rst $end
$var wire 1 G wr_cs $end
$var wire 1 G wr_en $end
$var reg 72 m dout [71:0] $end
$var reg 10 n rd_pointer [9:0] $end
$var reg 11 o status_cnt [10:0] $end
$var reg 10 p wr_pointer [9:0] $end
$scope module DP_RAM $end
$var wire 10 q address_0 [9:0] $end
$var wire 10 r address_1 [9:0] $end
$var wire 1 G cs_0 $end
$var wire 1 F cs_1 $end
$var wire 72 s data_0 [71:0] $end
$var wire 72 t data_1 [71:0] $end
$var wire 1 u oe_0 $end
$var wire 1 l oe_1 $end
$var wire 1 G we_0 $end
$var wire 1 v we_1 $end
$var reg 72 w data_0_out [71:0] $end
$var reg 72 x data_1_out [71:0] $end
$scope begin MEM_WRITE $end
$upscope $end
$scope begin MEM_READ_0 $end
$upscope $end
$scope begin MEM_READ_1 $end
$upscope $end
$upscope $end
$scope begin WRITE_POINTER $end
$upscope $end
$scope begin READ_POINTER $end
$upscope $end
$scope begin READ_DATA $end
$upscope $end
$scope begin STATUS_COUNTER $end
$upscope $end
$upscope $end
$scope module rx0xgmii2fifo $end
$var wire 72 y din [71:0] $end
$var wire 1 ? full $end
$var wire 1 I sys_rst $end
$var wire 1 z wr_clk $end
$var wire 1 H xgmii_rx_clk $end
$var wire 72 { xgmii_rxd [71:0] $end
$var reg 4 | gap_count [3:0] $end
$var reg 1 } quad_shift $end
$var reg 72 ~ rxd [71:0] $end
$var reg 36 !" rxd2 [35:0] $end
$var reg 1 "" start $end
$var reg 1 #" wr_en $end
$upscope $end
$scope module rx1xgmii2fifo $end
$var wire 72 $" din [71:0] $end
$var wire 1 E full $end
$var wire 1 I sys_rst $end
$var wire 1 %" wr_clk $end
$var wire 1 H xgmii_rx_clk $end
$var wire 72 &" xgmii_rxd [71:0] $end
$var reg 4 '" gap_count [3:0] $end
$var reg 1 (" quad_shift $end
$var reg 72 )" rxd [71:0] $end
$var reg 36 *" rxd2 [35:0] $end
$var reg 1 +" start $end
$var reg 1 ," wr_en $end
$upscope $end
$scope module crc32_d64_inst $end
$var wire 1 H clk $end
$var wire 1 -" crc_en $end
$var wire 32 ." crc_out [31:0] $end
$var wire 64 /" data_in [63:0] $end
$var wire 1 0" rst $end
$var reg 32 1" lfsr_c [31:0] $end
$var reg 32 2" lfsr_q [31:0] $end
$upscope $end
$upscope $end
$scope task waitclock $end
$upscope $end
$upscope $end
$enddefinitions $end
#0
$dumpvars
bx 2"
bx 1"
x0"
bx /"
bx ."
x-"
x,"
0+"
b0 *"
b0 )"
0("
b0 '"
bx &"
0%"
b0 $"
x#"
0""
b0 !"
b0 ~
0}
b0 |
bx {
0z
b0 y
b0 x
b0 w
0v
0u
b0xxxxxxxxxxxxxxxxxxxxxxxxxxxxxxxx t
b0 s
b0 r
b0 q
b0 p
b0 o
b0 n
b0 m
zl
b0 k
b0xxxxxxxxxxxxxxxxxxxxxxxxxxxxxxxx j
b0 i
b0 h
b0 g
0f
0e
b0xxxxxxxxxxxxxxxxxxxxxxxxxxxxxxxx d
b0 c
b0 b
b0 a
b0 `
b0 _
b0 ^
b0 ]
b0 \
b0xxxxxxxxxxxxxxxxxxxxxxxxxxxxxxxx [
b0 Z
bx Y
bx X
b0 W
b0 V
b0 U
xT
bx S
bx R
bx Q
bx P
bx O
bx N
bx M
bx L
bx K
bx J
1I
0H
xG
zF
0E
1D
b0 C
b0 B
xA
z@
0?
1>
b0 =
b0 <
b0zzxx ;
bx :
bx 9
x8
x7
x6
x5
x4
bx 3
bx 2
bx 1
bx 0
bx /
bx .
1-
0,
bx +
x*
x)
x(
x'
x&
bx %
bx $
bx #
bx "
b0zzxx !
$end
#8
b11111111111111111111111111111111 2"
b11111111111111111111111111111111 9
b11111111111111111111111111111111 ."
b1101001000001001011101101011001 1"
b0 /"
0#"
0A
0,"
0G
0T
10"
0-"
b11111111 X
b11111111 $
b11111111 P
b11111111 "
b11111111 L
b11100000111000001110000011100000111000001110000011100000111 Y
b11100000111000001110000011100000111000001110000011100000111 %
b11100000111000001110000011100000111000001110000011100000111 Q
b11100000111000001110000011100000111000001110000011100000111 #
b11100000111000001110000011100000111000001110000011100000111 M
1,
1H
1z
1%"
#16
0,
0H
0z
0%"
#24
1,
1H
1z
1%"
#25
0-
0I
#32
0,
0H
0z
0%"
#40
b11100110111010010000011101110101 1"
b1101010101010101010101010101010101010101010101010101010100000000 /"
1""
1+"
b1 X
b1 $
b1 P
b1 "
b1 L
b1101010101010101010101010101010101010101010101010101010111111011 Y
b1101010101010101010101010101010101010101010101010101010111111011 %
b1101010101010101010101010101010101010101010101010101010111111011 Q
b1101010101010101010101010101010101010101010101010101010111111011 #
b1101010101010101010101010101010101010101010101010101010111111011 M
b1000 W
1,
1H
1z
1%"
#48
0,
0H
0z
0%"
#56
b1101010111010111100111111001111 1"
b1101111010100000000000001101011001111011000111010010010100010001 /"
b0 X
b0 $
b0 P
b0 "
b0 L
b1101111010100000000000001101011001111011000111010010010100010001 Y
b1101111010100000000000001101011001111011000111010010010100010001 %
b1101111010100000000000001101011001111011000111010010010100010001 Q
b1101111010100000000000001101011001111011000111010010010100010001 #
b1101111010100000000000001101011001111011000111010010010100010001 M
1T
00"
1-"
b10000 W
1,
1H
1z
1%"
#64
0,
0H
0z
0%"
#72
b10001010000000000001000111010000000011100011100 /"
b10110010111110011110011001010000 1"
b1101010111010111100111111001111 2"
b1101010111010111100111111001111 9
b1101010111010111100111111001111 ."
b10001010000000000001000111010000000011100011100 Y
b10001010000000000001000111010000000011100011100 %
b10001010000000000001000111010000000011100011100 Q
b10001010000000000001000111010000000011100011100 #
b10001010000000000001000111010000000011100011100 M
b11000 W
1,
1H
1z
1%"
#80
0,
0H
0z
0%"
#88
b100010000000001010000000000000000000000100110011111100001010100 /"
b11110010001110011110111101110110 1"
b10110010111110011110011001010000 2"
b10110010111110011110011001010000 9
b10110010111110011110011001010000 ."
b100010000000001010000000000000000000000100110011111100001010100 Y
b100010000000001010000000000000000000000100110011111100001010100 %
b100010000000001010000000000000000000000100110011111100001010100 Q
b100010000000001010000000000000000000000100110011111100001010100 #
b100010000000001010000000000000000000000100110011111100001010100 M
b100000 W
1,
1H
1z
1%"
#96
0,
0H
0z
0%"
#104
b1011000000000000010100110100100010101000000000000101010011101 /"
b11011010010101001111101011100100 1"
b11110010001110011110111101110110 2"
b11110010001110011110111101110110 9
b11110010001110011110111101110110 ."
b1011000000000000010100110100100010101000000000000101010011101 Y
b1011000000000000010100110100100010101000000000000101010011101 %
b1011000000000000010100110100100010101000000000000101010011101 Q
b1011000000000000010100110100100010101000000000000101010011101 #
b1011000000000000010100110100100010101000000000000101010011101 M
b101000 W
1,
1H
1z
1%"
#112
0,
0H
0z
0%"
#120
b111101110000100010111010101000000000000100001100100 /"
b11110010011010100100010011010 1"
b11011010010101001111101011100100 2"
b11011010010101001111101011100100 9
b11011010010101001111101011100100 ."
b111101110000100010111010101000000000000100001100100 Y
b111101110000100010111010101000000000000100001100100 %
b111101110000100010111010101000000000000100001100100 Q
b111101110000100010111010101000000000000100001100100 #
b111101110000100010111010101000000000000100001100100 M
b110000 W
1,
1H
1z
1%"
#128
0,
0H
0z
0%"
#136
b1010101100000101000000000000011010000100101011000100111100000111 /"
b1011101000100010001000111111001 1"
b11110010011010100100010011010 2"
b11110010011010100100010011010 9
b11110010011010100100010011010 ."
b1010101100000101000000000000011010000100101011000100111100000111 Y
b1010101100000101000000000000011010000100101011000100111100000111 %
b1010101100000101000000000000011010000100101011000100111100000111 Q
b1010101100000101000000000000011010000100101011000100111100000111 #
b1010101100000101000000000000011010000100101011000100111100000111 M
b111000 W
1,
1H
1z
1%"
#144
0,
0H
0z
0%"
#152
b111000001101000011000000101100001010000010010000100011110000 /"
b11011011010101100110100001101 1"
b1011101000100010001000111111001 2"
b1011101000100010001000111111001 9
b1011101000100010001000111111001 ."
b111000001101000011000000101100001010000010010000100011110000 Y
b111000001101000011000000101100001010000010010000100011110000 %
b111000001101000011000000101100001010000010010000100011110000 Q
b111000001101000011000000101100001010000010010000100011110000 #
b111000001101000011000000101100001010000010010000100011110000 M
b1000000 W
1,
1H
1z
1%"
#160
0,
0H
0z
0%"
#168
b1011000010101000101000001001100010010000100010001000000001111 /"
b11001010000110010110101000011001 1"
b11011011010101100110100001101 2"
b11011011010101100110100001101 9
b11011011010101100110100001101 ."
b1011000010101000101000001001100010010000100010001000000001111 Y
b1011000010101000101000001001100010010000100010001000000001111 %
b1011000010101000101000001001100010010000100010001000000001111 Q
b1011000010101000101000001001100010010000100010001000000001111 #
b1011000010101000101000001001100010010000100010001000000001111 M
b1001000 W
1,
1H
1z
1%"
#176
0,
0H
0z
0%"
#184
b1111000011101000111000001101100011010000110010001100000010111 /"
b10010111101100101111101100001011 1"
b11001010000110010110101000011001 2"
b11001010000110010110101000011001 9
b11001010000110010110101000011001 ."
b1111000011101000111000001101100011010000110010001100000010111 Y
b1111000011101000111000001101100011010000110010001100000010111 %
b1111000011101000111000001101100011010000110010001100000010111 Q
b1111000011101000111000001101100011010000110010001100000010111 #
b1111000011101000111000001101100011010000110010001100000010111 M
b1010000 W
1,
1H
1z
1%"
#192
0,
0H
0z
0%"
#200
b10011000100101001001000010001100100010001000010010000000011111 /"
b11010010000101101100111010001001 1"
b10010111101100101111101100001011 2"
b10010111101100101111101100001011 9
b10010111101100101111101100001011 ."
b10011000100101001001000010001100100010001000010010000000011111 Y
b10011000100101001001000010001100100010001000010010000000011111 %
b10011000100101001001000010001100100010001000010010000000011111 Q
b10011000100101001001000010001100100010001000010010000000011111 #
b10011000100101001001000010001100100010001000010010000000011111 M
b1011000 W
1,
1H
1z
1%"
#208
0,
0H
0z
0%"
#216
b10111000101101001011000010101100101010001010010010100000100111 /"
b111001111010011111010100001 1"
b11010010000101101100111010001001 2"
b11010010000101101100111010001001 9
b11010010000101101100111010001001 ."
b10111000101101001011000010101100101010001010010010100000100111 Y
b10111000101101001011000010101100101010001010010010100000100111 %
b10111000101101001011000010101100101010001010010010100000100111 Q
b10111000101101001011000010101100101010001010010010100000100111 #
b10111000101101001011000010101100101010001010010010100000100111 M
b1100000 W
1,
1H
1z
1%"
#224
0,
0H
0z
0%"
#232
b11011000110101001101000011001100110010001100010011000000101111 /"
b111111010000101111010110101000 1"
b111001111010011111010100001 2"
b111001111010011111010100001 9
b111001111010011111010100001 ."
b11011000110101001101000011001100110010001100010011000000101111 Y
b11011000110101001101000011001100110010001100010011000000101111 %
b11011000110101001101000011001100110010001100010011000000101111 Q
b11011000110101001101000011001100110010001100010011000000101111 #
b11011000110101001101000011001100110010001100010011000000101111 M
b1101000 W
1,
1H
1z
1%"
#240
0,
0H
0z
0%"
#248
b100011100110111 /"
b10000101100001110111011101111111 1"
b111111010000101111010110101000 2"
b111111010000101111010110101000 9
b111111010000101111010110101000 ."
b11111100 X
b11111100 $
b11111100 P
b11111100 "
b11111100 L
b11100000111111111011011101011111100010011110100011100110111 Y
b11100000111111111011011101011111100010011110100011100110111 %
b11100000111111111011011101011111100010011110100011100110111 Q
b11100000111111111011011101011111100010011110100011100110111 #
b11100000111111111011011101011111100010011110100011100110111 M
b1110000 W
1,
1H
1z
1%"
#256
0,
0H
0z
0%"
#264
b0 /"
b11111110011110110101111000011000 1"
b10000101100001110111011101111111 2"
b10000101100001110111011101111111 9
b10000101100001110111011101111111 ."
b11111111 X
b11111111 $
b11111111 P
b11111111 "
b11111111 L
b11100000111000001110000011100000111000001110000011100000111 Y
b11100000111000001110000011100000111000001110000011100000111 %
b11100000111000001110000011100000111000001110000011100000111 Q
b11100000111000001110000011100000111000001110000011100000111 #
b11100000111000001110000011100000111000001110000011100000111 M
b1111000 W
1,
1H
1z
1%"
#272
0,
0H
0z
0%"
#280
b11100100001010010100101110 1"
b11111110011110110101111000011000 2"
b11111110011110110101111000011000 9
b11111110011110110101111000011000 ."
b10000000 W
1,
1H
1z
1%"
#288
0,
0H
0z
0%"
#296
b1101101001000111011110101010101 1"
b11100100001010010100101110 2"
b11100100001010010100101110 9
b11100100001010010100101110 ."
b10001000 W
1,
1H
1z
1%"
#304
0,
0H
0z
0%"
#312
b100100110001110001000000101101 1"
b1101101001000111011110101010101 2"
b1101101001000111011110101010101 9
b1101101001000111011110101010101 ."
b10010000 W
1,
1H
1z
1%"
#320
0,
0H
0z
0%"
#328
b11111001001111110000011001100010 1"
b100100110001110001000000101101 2"
b100100110001110001000000101101 9
b100100110001110001000000101101 ."
b10011000 W
1,
1H
1z
1%"
#336
0,
0H
0z
0%"
#344
b11000010001010101001110001010001 1"
b11111001001111110000011001100010 2"
b11111001001111110000011001100010 9
b11111001001111110000011001100010 ."
b10100000 W
1,
1H
1z
1%"
#352
0,
0H
0z
0%"
#360
b111111011011111101010100010101 1"
b11000010001010101001110001010001 2"
b11000010001010101001110001010001 9
b11000010001010101001110001010001 ."
b10101000 W
1,
1H
1z
1%"
#368
0,
0H
0z
0%"
#376
b111001110111000110011100111001 1"
b111111011011111101010100010101 2"
b111111011011111101010100010101 9
b111111011011111101010100010101 ."
b10110000 W
1,
1H
1z
1%"
#384
0,
0H
0z
0%"
#392
b11001010001100000010101100000 1"
b111001110111000110011100111001 2"
b111001110111000110011100111001 9
b111001110111000110011100111001 ."
b10111000 W
1,
1H
1z
1%"
#400
0,
0H
0z
0%"
#408
b1100011011010000000100001101110 1"
b11001010001100000010101100000 2"
b11001010001100000010101100000 9
b11001010001100000010101100000 ."
b11000000 W
1,
1H
1z
1%"
#416
0,
0H
0z
0%"
#424
b1101000011111100000110110011 1"
b1100011011010000000100001101110 2"
b1100011011010000000100001101110 9
b1100011011010000000100001101110 ."
b11001000 W
1,
1H
1z
1%"
#432
0,
0H
0z
0%"
#440
b1000110011001011001010011011100 1"
b1101000011111100000110110011 2"
b1101000011111100000110110011 9
b1101000011111100000110110011 ."
b11010000 W
1,
1H
1z
1%"
#448
0,
0H
0z
0%"
#456
b11011111001110011110011100000010 1"
b1000110011001011001010011011100 2"
b1000110011001011001010011011100 9
b1000110011001011001010011011100 ."
b11011000 W
1,
1H
1z
1%"
#464
0,
0H
0z
0%"
#472
b11100100111001101101101110011011 1"
b11011111001110011110011100000010 2"
b11011111001110011110011100000010 9
b11011111001110011110011100000010 ."
b11100000 W
1,
1H
1z
1%"
#480
0,
0H
0z
0%"
#488
b111000101110111110110000010 1"
b11100100111001101101101110011011 2"
b11100100111001101101101110011011 9
b11100100111001101101101110011011 ."
b11101000 W
1,
1H
1z
1%"
#496
0,
0H
0z
0%"
#504
b10110111011100110011001101101111 1"
b111000101110111110110000010 2"
b111000101110111110110000010 9
b111000101110111110110000010 ."
b11110000 W
1,
1H
1z
1%"
#512
0,
0H
0z
0%"
#520
b101010111101011001010110100100 1"
b10110111011100110011001101101111 2"
b10110111011100110011001101101111 9
b10110111011100110011001101101111 ."
b11111000 W
1,
1H
1z
1%"
#528
0,
0H
0z
0%"
#536
b10010111011111011011110111101010 1"
b101010111101011001010110100100 2"
b101010111101011001010110100100 9
b101010111101011001010110100100 ."
b100000000 W
1,
1H
1z
1%"
#544
0,
0H
0z
0%"
#552
b11100011100110000100110100000011 1"
b10010111011111011011110111101010 2"
b10010111011111011011110111101010 9
b10010111011111011011110111101010 ."
b100001000 W
1,
1H
1z
1%"
#560
0,
0H
0z
0%"
#568
b1101001101100110100110000111100 1"
b11100011100110000100110100000011 2"
b11100011100110000100110100000011 9
b11100011100110000100110100000011 ."
b100010000 W
1,
1H
1z
1%"
#576
0,
0H
0z
0%"
#584
b111000000011010110001010010110 1"
b1101001101100110100110000111100 2"
b1101001101100110100110000111100 9
b1101001101100110100110000111100 ."
b100011000 W
1,
1H
1z
1%"
#592
0,
0H
0z
0%"
#600
b10010001111010010100001001100010 1"
b111000000011010110001010010110 2"
b111000000011010110001010010110 9
b111000000011010110001010010110 ."
b100100000 W
1,
1H
1z
1%"
#608
0,
0H
0z
0%"
#616
b10110011000010110001110011001111 1"
b10010001111010010100001001100010 2"
b10010001111010010100001001100010 9
b10010001111010010100001001100010 ."
b100101000 W
1,
1H
1z
1%"
#624
0,
0H
0z
0%"
#632
b1110111011111111011101110110101 1"
b10110011000010110001110011001111 2"
b10110011000010110001110011001111 9
b10110011000010110001110011001111 ."
b100110000 W
1,
1H
1z
1%"
#640
0,
0H
0z
0%"
#648
b10000000010001000011000000100001 1"
b1110111011111111011101110110101 2"
b1110111011111111011101110110101 9
b1110111011111111011101110110101 ."
b100111000 W
1,
1H
1z
1%"
#656
0,
0H
0z
0%"
#664
b1000000011111110011010011100101 1"
b10000000010001000011000000100001 2"
b10000000010001000011000000100001 9
b10000000010001000011000000100001 ."
b101000000 W
1,
1H
1z
1%"
#672
0,
0H
0z
0%"
#680
b1001100000000111011000000100011 1"
b1000000011111110011010011100101 2"
b1000000011111110011010011100101 9
b1000000011111110011010011100101 ."
b101001000 W
1,
1H
1z
1%"
#688
0,
0H
0z
0%"
#696
b1110010011010010111111111010101 1"
b1001100000000111011000000100011 2"
b1001100000000111011000000100011 9
b1001100000000111011000000100011 ."
b101010000 W
1,
1H
1z
1%"
#704
0,
0H
0z
0%"
#712
b11101100101000100000011000011001 1"
b1110010011010010111111111010101 2"
b1110010011010010111111111010101 9
b1110010011010010111111111010101 ."
b101011000 W
1,
1H
1z
1%"
#720
0,
0H
0z
0%"
#728
b10001100110001101001110100001110 1"
b11101100101000100000011000011001 2"
b11101100101000100000011000011001 9
b11101100101000100000011000011001 ."
b101100000 W
1,
1H
1z
1%"
#736
0,
0H
0z
0%"
#744
b10010111111001010111010011101100 1"
b10001100110001101001110100001110 2"
b10001100110001101001110100001110 9
b10001100110001101001110100001110 ."
b101101000 W
1,
1H
1z
1%"
#752
0,
0H
0z
0%"
#760
b1011110110010110010110000001100 1"
b10010111111001010111010011101100 2"
b10010111111001010111010011101100 9
b10010111111001010111010011101100 ."
b101110000 W
1,
1H
1z
1%"
#768
0,
0H
0z
0%"
#776
b10111101100101101000111010011001 1"
b1011110110010110010110000001100 2"
b1011110110010110010110000001100 9
b1011110110010110010110000001100 ."
b101111000 W
1,
1H
1z
1%"
#784
0,
0H
0z
0%"
#792
b10100010100010101010110111110010 1"
b10111101100101101000111010011001 2"
b10111101100101101000111010011001 9
b10111101100101101000111010011001 ."
b110000000 W
1,
1H
1z
1%"
#800
0,
0H
0z
0%"
#808
b101011110001101101111000101110 1"
b10100010100010101010110111110010 2"
b10100010100010101010110111110010 9
b10100010100010101010110111110010 ."
b110001000 W
1,
1H
1z
1%"
#816
0,
0H
0z
0%"
#824
b11001001101010010111110110101010 1"
b101011110001101101111000101110 2"
b101011110001101101111000101110 9
b101011110001101101111000101110 ."
b110010000 W
1,
1H
1z
1%"
#832
0,
0H
0z
0%"
#840
b11101100000110110011001100110011 1"
b11001001101010010111110110101010 2"
b11001001101010010111110110101010 9
b11001001101010010111110110101010 ."
b110011000 W
1,
1H
1z
1%"
#848
0,
0H
0z
0%"
#856
b11001010001100111101011110111010 1"
b11101100000110110011001100110011 2"
b11101100000110110011001100110011 9
b11101100000110110011001100110011 ."
b110100000 W
1,
1H
1z
1%"
#864
0,
0H
0z
0%"
#872
b10000111100001110010100000110110 1"
b11001010001100111101011110111010 2"
b11001010001100111101011110111010 9
b11001010001100111101011110111010 ."
b110101000 W
1,
1H
1z
1%"
#880
0,
0H
0z
0%"
#888
b10111001010010100001010001110100 1"
b10000111100001110010100000110110 2"
b10000111100001110010100000110110 9
b10000111100001110010100000110110 ."
b110110000 W
1,
1H
1z
1%"
#896
0,
0H
0z
0%"
#904
b1111100101000001110101001 1"
b10111001010010100001010001110100 2"
b10111001010010100001010001110100 9
b10111001010010100001010001110100 ."
b110111000 W
1,
1H
1z
1%"
#912
0,
0H
0z
0%"
#920
b11011100101001110101010001000100 1"
b1111100101000001110101001 2"
b1111100101000001110101001 9
b1111100101000001110101001 ."
b111000000 W
1,
1H
1z
1%"
#928
0,
0H
0z
0%"
#936
b11110101001110011001000000101001 1"
b11011100101001110101010001000100 2"
b11011100101001110101010001000100 9
b11011100101001110101010001000100 ."
b111001000 W
1,
1H
1z
1%"
#944
0,
0H
0z
0%"
#952
b1110100111000011000100011010 1"
b11110101001110011001000000101001 2"
b11110101001110011001000000101001 9
b11110101001110011001000000101001 ."
b111010000 W
1,
1H
1z
1%"
#960
0,
0H
0z
0%"
#968
b11101100001000101110100001111 1"
b1110100111000011000100011010 2"
b1110100111000011000100011010 9
b1110100111000011000100011010 ."
b111011000 W
1,
1H
1z
1%"
#976
0,
0H
0z
0%"
#984
b101110111110010011110111111001 1"
b11101100001000101110100001111 2"
b11101100001000101110100001111 9
b11101100001000101110100001111 ."
b111100000 W
1,
1H
1z
1%"
#992
0,
0H
0z
0%"
#1000
b1110010111110010001111110000 1"
b101110111110010011110111111001 2"
b101110111110010011110111111001 9
b101110111110010011110111111001 ."
b111101000 W
1,
1H
1z
1%"
#1008
0,
0H
0z
0%"
#1016
b101110111111001110111000100110 1"
b1110010111110010001111110000 2"
b1110010111110010001111110000 9
b1110010111110010001111110000 ."
b111110000 W
1,
1H
1z
1%"
#1024
0,
0H
0z
0%"
#1032
b10100100011001010010010100110000 1"
b101110111111001110111000100110 2"
b101110111111001110111000100110 9
b101110111111001110111000100110 ."
b111111000 W
1,
1H
1z
1%"
#1040
0,
0H
0z
0%"
#1048
b11111001001011000000100101001011 1"
b10100100011001010010010100110000 2"
b10100100011001010010010100110000 9
b10100100011001010010010100110000 ."
b1000000000 W
1,
1H
1z
1%"
#1056
0,
0H
0z
0%"
#1064
b1100110101110001111101100100010 1"
b11111001001011000000100101001011 2"
b11111001001011000000100101001011 9
b11111001001011000000100101001011 ."
b1000001000 W
1,
1H
1z
1%"
#1072
0,
0H
0z
0%"
#1080
b10000010001000000110100101111010 1"
b1100110101110001111101100100010 2"
b1100110101110001111101100100010 9
b1100110101110001111101100100010 ."
b1000010000 W
1,
1H
1z
1%"
#1088
0,
0H
0z
0%"
#1096
b101001010001100010011010111010 1"
b10000010001000000110100101111010 2"
b10000010001000000110100101111010 9
b10000010001000000110100101111010 ."
b1000011000 W
1,
1H
1z
1%"
#1104
0,
0H
0z
0%"
#1112
b10001111100001011010000000100111 1"
b101001010001100010011010111010 2"
b101001010001100010011010111010 9
b101001010001100010011010111010 ."
b1000100000 W
1,
1H
1z
1%"
#1120
0,
0H
0z
0%"
#1128
b1000101001111000010000111111010 1"
b10001111100001011010000000100111 2"
b10001111100001011010000000100111 9
b10001111100001011010000000100111 ."
b1000101000 W
1,
1H
1z
1%"
#1136
0,
0H
0z
0%"
#1144
b11000000100001001001001100011101 1"
b1000101001111000010000111111010 2"
b1000101001111000010000111111010 9
b1000101001111000010000111111010 ."
b1000110000 W
1,
1H
1z
1%"
#1152
0,
0H
0z
0%"
#1160
b1000110100111001010100010001111 1"
b11000000100001001001001100011101 2"
b11000000100001001001001100011101 9
b11000000100001001001001100011101 ."
b1000111000 W
1,
1H
1z
1%"
#1168
0,
0H
0z
0%"
#1176
b1000001101101010101111010010001 1"
b1000110100111001010100010001111 2"
b1000110100111001010100010001111 9
b1000110100111001010100010001111 ."
b1001000000 W
1,
1H
1z
1%"
#1184
0,
0H
0z
0%"
#1192
b10110010001100111011010010000100 1"
b1000001101101010101111010010001 2"
b1000001101101010101111010010001 9
b1000001101101010101111010010001 ."
b1001001000 W
1,
1H
1z
1%"
#1200
0,
0H
0z
0%"
#1208
b11111001010011000110110101111111 1"
b10110010001100111011010010000100 2"
b10110010001100111011010010000100 9
b10110010001100111011010010000100 ."
b1001010000 W
1,
1H
1z
1%"
#1216
0,
0H
0z
0%"
#1224
b1001110001100001101001101001111 1"
b11111001010011000110110101111111 2"
b11111001010011000110110101111111 9
b11111001010011000110110101111111 ."
b1001011000 W
1,
1H
1z
1%"
#1232
0,
0H
0z
0%"
#1240
b11001011100010000111000000000110 1"
b1001110001100001101001101001111 2"
b1001110001100001101001101001111 9
b1001110001100001101001101001111 ."
b1001100000 W
1,
1H
1z
1%"
#1248
0,
0H
0z
0%"
#1256
b11101000011111100000001010111 1"
b11001011100010000111000000000110 2"
b11001011100010000111000000000110 9
b11001011100010000111000000000110 ."
b1001101000 W
1,
1H
1z
1%"
#1264
0,
0H
0z
0%"
#1272
b11011000010110101011100110100001 1"
b11101000011111100000001010111 2"
b11101000011111100000001010111 9
b11101000011111100000001010111 ."
b1001110000 W
1,
1H
1z
1%"
#1280
0,
0H
0z
0%"
#1288
b11011111100001010101000101111110 1"
b11011000010110101011100110100001 2"
b11011000010110101011100110100001 9
b11011000010110101011100110100001 ."
b1001111000 W
1,
1H
1z
1%"
#1296
0,
0H
0z
0%"
#1304
b1101011100111010010100001011101 1"
b11011111100001010101000101111110 2"
b11011111100001010101000101111110 9
b11011111100001010101000101111110 ."
b1010000000 W
1,
1H
1z
1%"
#1312
0,
0H
0z
0%"
#1320
b1011101001001111010111101101 1"
b1101011100111010010100001011101 2"
b1101011100111010010100001011101 9
b1101011100111010010100001011101 ."
b1010001000 W
1,
1H
1z
1%"
#1328
0,
0H
0z
0%"
#1336
b11000111010001010110010001011 1"
b1011101001001111010111101101 2"
b1011101001001111010111101101 9
b1011101001001111010111101101 ."
b1010010000 W
1,
1H
1z
1%"
#1344
0,
0H
0z
0%"
#1352
b10010100000100101010000010110111 1"
b11000111010001010110010001011 2"
b11000111010001010110010001011 9
b11000111010001010110010001011 ."
b1010011000 W
1,
1H
1z
1%"
#1360
0,
0H
0z
0%"
